[ {
  "ccy" : "USD",
  "base_ccy" : "UAH",
  "buy" : 27.90000,
  "sale" : 28.20000
}, {
  "ccy" : "EUR",
  "base_ccy" : "UAH",
  "buy" : 31.60000,
  "sale" : 32.15000
}, {
  "ccy" : "RUR",
  "base_ccy" : "UAH",
  "buy" : 0.39200,
  "sale" : 0.42500
}, {
  "ccy" : "BTC",
  "base_ccy" : "USD",
  "buy" : 3786.4720,
  "sale" : 4185.0480
} ]