{
  "firstName":"Petro",
  "lastName":"Ivaniv",
  "course":{
    "author":"Jakov Fain",
    "title":"Java Professional",
    "description":"For everyone"
  },
  "personalContacts":[
    "https://www.youtube.com/channel/UCnExw5tVdA3TJeb4kmCd-JQ",
    "https://yakovfain.com/",
    "https://twitter.com/yfain"
  ]
}